…
# Instrumentos de mentalización:

## Datos perdidos:

### Omisiones en MMQ

``` r
naniar::miss_var_summary(datos[,17:49])
```

    ## # A tibble: 33 x 3
    ##    variable   n_miss pct_miss
    ##    <chr>       <int>    <dbl>
    ##  1 q0007_0001     55     13.0
    ##  2 q0007_0002     55     13.0
    ##  3 q0007_0003     55     13.0
    ##  4 q0007_0004     55     13.0
    ##  5 q0007_0005     55     13.0
    ##  6 q0007_0006     55     13.0
    ##  7 q0007_0007     55     13.0
    ##  8 q0007_0008     55     13.0
    ##  9 q0007_0009     55     13.0
    ## 10 q0007_0010     55     13.0
    ## # ... with 23 more rows
…
Las omisiones son estables en todo el instrumento.

### Omisiones en MentS

``` r
naniar::miss_var_summary(datos[,50:77])
```

    ## # A tibble: 28 x 3
    ##    variable   n_miss pct_miss
    ##    <chr>       <int>    <dbl>
    ##  1 q0008_0001     74     17.5
    ##  2 q0008_0002     74     17.5
    ##  3 q0008_0003     74     17.5
    ##  4 q0008_0004     74     17.5
    ##  5 q0008_0005     74     17.5
    ##  6 q0008_0006     74     17.5
    ##  7 q0008_0007     74     17.5
    ##  8 q0008_0008     74     17.5
    ##  9 q0008_0009     74     17.5
    ## 10 q0008_0010     74     17.5
    ## # ... with 18 more rows
…
El Empathy Quotient \[EQ\] fue adaptado a la población chilena y cuenta
con evidencia de validez en esta población (revisar paper). Este
instrumento cuenta con 3 subdimensiones: empatía cognitiva, reactividad
emocional y habilidades sociales.

``` r
items_eq = datos %>% dplyr::select(starts_with("q0009"))
```

``` r
naniar::miss_var_summary(items_eq)
```

    ## # A tibble: 60 x 3
    ##    variable   n_miss pct_miss
    ##    <chr>       <int>    <dbl>
    ##  1 q0009_0001    112     26.5
    ##  2 q0009_0002    112     26.5
    ##  3 q0009_0003    112     26.5
    ##  4 q0009_0004    112     26.5
    ##  5 q0009_0005    112     26.5
    ##  6 q0009_0006    112     26.5
    ##  7 q0009_0007    112     26.5
    ##  8 q0009_0008    112     26.5
    ##  9 q0009_0009    112     26.5
    ## 10 q0009_0010    112     26.5
    ## # ... with 50 more rows
…
El Interpersonal reactivity index (IRI) cuenta con 4 factores:

Fantasy Scale (FS); Perspective taking (PT); Empathic Concern (EC) and
Personal Distress (PD) scales

``` r
items_iri = datos %>% select(starts_with("q0010"))
```

``` r
naniar::miss_var_summary(items_iri)
```

    ## # A tibble: 28 x 3
    ##    variable   n_miss pct_miss
    ##    <chr>       <int>    <dbl>
    ##  1 q0010_0001    125     29.6
    ##  2 q0010_0002    125     29.6
    ##  3 q0010_0003    125     29.6
    ##  4 q0010_0004    125     29.6
    ##  5 q0010_0005    125     29.6
    ##  6 q0010_0006    125     29.6
    ##  7 q0010_0007    125     29.6
    ##  8 q0010_0008    125     29.6
    ##  9 q0010_0009    125     29.6
    ## 10 q0010_0010    125     29.6
    ## # ... with 18 more rows
…
Agresión verbal: 2,6,14,18

Anger: 3,7,11,22

Hostilidad: 4,16,20,26,28

``` r
items_aq = datos %>% select(starts_with("q0011"))
```

``` r
naniar::miss_var_summary(items_aq)
```

    ## # A tibble: 29 x 3
    ##    variable   n_miss pct_miss
    ##    <chr>       <int>    <dbl>
    ##  1 q0011_0001    132     31.3
    ##  2 q0011_0002    132     31.3
    ##  3 q0011_0003    132     31.3
    ##  4 q0011_0004    132     31.3
    ##  5 q0011_0005    132     31.3
    ##  6 q0011_0006    132     31.3
    ##  7 q0011_0007    132     31.3
    ##  8 q0011_0008    132     31.3
    ##  9 q0011_0009    132     31.3
    ## 10 q0011_0010    132     31.3
    ## # ... with 19 more rows
…
